Type                 IPAddress            Notes
iBoot                192.168.0.121        !Device 1 Comments Here
iBoot                192.168.0.122        !Device 2 Comments Here
iBoot                192.168.0.123        !Device 3 Comments Here
